<?xml version="1.0" encoding="UTF-8" standalone="no"?>
<!-- Created with Inkscape (http://www.inkscape.org/) -->

<svg
   xmlns:dc="http://purl.org/dc/elements/1.1/"
   xmlns:cc="http://creativecommons.org/ns#"
   xmlns:rdf="http://www.w3.org/1999/02/22-rdf-syntax-ns#"
   xmlns:svg="http://www.w3.org/2000/svg"
   xmlns="http://www.w3.org/2000/svg"
   xmlns:sodipodi="http://sodipodi.sourceforge.net/DTD/sodipodi-0.dtd"
   xmlns:inkscape="http://www.inkscape.org/namespaces/inkscape"
   width="1920"
   height="1080"
   viewBox="0 0 508 285.75"
   version="1.1"
   id="svg883"
   inkscape:version="0.92.4 5da689c313, 2019-01-14"
   sodipodi:docname="webcam+chat.svg"
   inkscape:export-filename="/home/gabmus/git/tech-pills-cyber-splash/overlays/webcam+chat.png"
   inkscape:export-xdpi="96"
   inkscape:export-ydpi="96">
  <defs
     id="defs877">
    <filter
       id="filter6976-3"
       inkscape:label="Drop Shadow"
       style="color-interpolation-filters:sRGB">
      <feFlood
         id="feFlood6978-1"
         result="flood"
         flood-color="rgb(38,50,56)"
         flood-opacity="0.2" />
      <feComposite
         id="feComposite6980-2"
         result="composite1"
         operator="in"
         in2="SourceGraphic"
         in="flood" />
      <feGaussianBlur
         id="feGaussianBlur6982-2"
         result="blur"
         stdDeviation="8"
         in="composite1" />
      <feOffset
         id="feOffset6984-9"
         result="offset"
         dy="8"
         dx="0" />
      <feComposite
         id="feComposite6986-3"
         result="composite2"
         operator="over"
         in2="offset"
         in="SourceGraphic" />
    </filter>
    <filter
       id="filter4235"
       inkscape:label="Drop Shadow"
       style="color-interpolation-filters:sRGB">
      <feFlood
         id="feFlood4225"
         result="flood"
         flood-color="rgb(38,50,56)"
         flood-opacity="0.2" />
      <feComposite
         id="feComposite4227"
         result="composite1"
         operator="in"
         in2="SourceGraphic"
         in="flood" />
      <feGaussianBlur
         id="feGaussianBlur4229"
         result="blur"
         stdDeviation="8"
         in="composite1" />
      <feOffset
         id="feOffset4231"
         result="offset"
         dy="8"
         dx="0" />
      <feComposite
         id="feComposite4233"
         result="composite2"
         operator="over"
         in2="offset"
         in="SourceGraphic" />
    </filter>
    <filter
       id="filter4254"
       inkscape:label="Drop Shadow"
       style="color-interpolation-filters:sRGB">
      <feFlood
         id="feFlood4244"
         result="flood"
         flood-color="rgb(38,50,56)"
         flood-opacity="0.2" />
      <feComposite
         id="feComposite4246"
         result="composite1"
         operator="in"
         in2="SourceGraphic"
         in="flood" />
      <feGaussianBlur
         id="feGaussianBlur4248"
         result="blur"
         stdDeviation="8"
         in="composite1" />
      <feOffset
         id="feOffset4250"
         result="offset"
         dy="8"
         dx="0" />
      <feComposite
         id="feComposite4252"
         result="composite2"
         operator="over"
         in2="offset"
         in="SourceGraphic" />
    </filter>
    <filter
       id="filter4273"
       inkscape:label="Drop Shadow"
       style="color-interpolation-filters:sRGB">
      <feFlood
         id="feFlood4263"
         result="flood"
         flood-color="rgb(38,50,56)"
         flood-opacity="0.2" />
      <feComposite
         id="feComposite4265"
         result="composite1"
         operator="in"
         in2="SourceGraphic"
         in="flood" />
      <feGaussianBlur
         id="feGaussianBlur4267"
         result="blur"
         stdDeviation="8"
         in="composite1" />
      <feOffset
         id="feOffset4269"
         result="offset"
         dy="8"
         dx="0" />
      <feComposite
         id="feComposite4271"
         result="composite2"
         operator="over"
         in2="offset"
         in="SourceGraphic" />
    </filter>
    <filter
       id="filter4292"
       inkscape:label="Drop Shadow"
       style="color-interpolation-filters:sRGB">
      <feFlood
         id="feFlood4282"
         result="flood"
         flood-color="rgb(38,50,56)"
         flood-opacity="0.2" />
      <feComposite
         id="feComposite4284"
         result="composite1"
         operator="in"
         in2="SourceGraphic"
         in="flood" />
      <feGaussianBlur
         id="feGaussianBlur4286"
         result="blur"
         stdDeviation="8"
         in="composite1" />
      <feOffset
         id="feOffset4288"
         result="offset"
         dy="8"
         dx="0" />
      <feComposite
         id="feComposite4290"
         result="composite2"
         operator="over"
         in2="offset"
         in="SourceGraphic" />
    </filter>
  </defs>
  <sodipodi:namedview
     id="base"
     pagecolor="#ffffff"
     bordercolor="#666666"
     borderopacity="1.0"
     inkscape:pageopacity="0.0"
     inkscape:pageshadow="2"
     inkscape:zoom="0.175"
     inkscape:cx="104.41097"
     inkscape:cy="-622.33535"
     inkscape:document-units="px"
     inkscape:current-layer="layer1"
     showgrid="false"
     units="px"
     inkscape:window-width="2560"
     inkscape:window-height="1376"
     inkscape:window-x="0"
     inkscape:window-y="27"
     inkscape:window-maximized="1"
     showguides="false"
     inkscape:guide-bbox="true"
     inkscape:snap-bbox="true"
     inkscape:snap-page="true"
     inkscape:snap-nodes="true"
     inkscape:snap-bbox-midpoints="false"
     inkscape:bbox-nodes="true"
     inkscape:snap-bbox-edge-midpoints="false"
     inkscape:snap-smooth-nodes="true"
     inkscape:snap-global="false"
     inkscape:bbox-paths="false"
     inkscape:snap-intersection-paths="true"
     inkscape:object-paths="true">
    <sodipodi:guide
       position="254,0"
       orientation="1,0"
       id="guide1801"
       inkscape:locked="false"
       inkscape:label=""
       inkscape:color="rgb(0,0,255)" />
    <sodipodi:guide
       position="0,142.875"
       orientation="0,1"
       id="guide1807"
       inkscape:locked="false"
       inkscape:label=""
       inkscape:color="rgb(0,0,255)" />
    <sodipodi:guide
       position="127,0"
       orientation="1,0"
       id="guide1809"
       inkscape:locked="false"
       inkscape:label=""
       inkscape:color="rgb(0,0,255)" />
    <sodipodi:guide
       position="381,0"
       orientation="1,0"
       id="guide1811"
       inkscape:locked="false"
       inkscape:label=""
       inkscape:color="rgb(0,0,255)" />
    <sodipodi:guide
       position="186.53125,202.40625"
       orientation="0,1"
       id="guide1861"
       inkscape:locked="false"
       inkscape:label=""
       inkscape:color="rgb(255,215,0)" />
    <sodipodi:guide
       position="186.53125,83.34375"
       orientation="0,1"
       id="guide1863"
       inkscape:locked="false"
       inkscape:label=""
       inkscape:color="rgb(255,195,0)" />
    <sodipodi:guide
       position="418.52832,116.9412"
       orientation="1,0"
       id="guide2032"
       inkscape:locked="false" />
  </sodipodi:namedview>
  <metadata
     id="metadata880">
    <rdf:RDF>
      <cc:Work
         rdf:about="">
        <dc:format>image/svg+xml</dc:format>
        <dc:type
           rdf:resource="http://purl.org/dc/dcmitype/StillImage" />
        <dc:title />
      </cc:Work>
    </rdf:RDF>
  </metadata>
  <g
     inkscape:label="Layer 1"
     inkscape:groupmode="layer"
     id="layer1"
     transform="translate(0,-11.25)"
     style="display:inline">
    <path
       sodipodi:nodetypes="cccccccccccccccccccc"
       style="opacity:0.5;fill:#000000;fill-opacity:1;stroke:none;stroke-width:1.72903919;stroke-linecap:round;stroke-miterlimit:4;stroke-dasharray:none;stroke-opacity:1"
       d="m 21.365936,64.212393 -6.709679,6.70968 h 5.13932 l 6.70969,-6.70968 z m 10.27844,0 -6.70969,6.70968 h 5.13913 l 6.709675,-6.70968 z m 10.278433,0 -6.709688,6.70968 h 5.139124 l 6.709688,-6.70968 z m 10.278438,0 -6.709683,6.70968 h 5.139119 l 6.709685,-6.70968 z"
       id="path1503"
       inkscape:connector-curvature="0" />
    <g
       id="g1581"
       transform="matrix(0.46753234,0,0,0.46753234,-243.86773,-21.350366)">
      <path
         sodipodi:nodetypes="cccccc"
         inkscape:connector-curvature="0"
         style="opacity:1;fill:#1c71d8;fill-opacity:1;stroke:none;stroke-width:8.1061039;stroke-linecap:round;stroke-miterlimit:4;stroke-dasharray:none;stroke-opacity:1"
         d="m 549.90182,207.86231 v 29.10416 h 148.16667 l 15.875,-14.60111 v -14.50305 z"
         id="path841" />
      <text
         xml:space="preserve"
         style="font-style:normal;font-weight:normal;font-size:24.10870552px;line-height:1.25;font-family:sans-serif;letter-spacing:0px;word-spacing:0px;fill:#ffffff;fill-opacity:1;stroke:none;stroke-width:1.5067941"
         x="593.74579"
         y="228.79114"
         id="text845-3"><tspan
           sodipodi:role="line"
           id="tspan843"
           x="593.74579"
           y="228.79114"
           style="font-style:normal;font-variant:normal;font-weight:normal;font-stretch:normal;font-size:18.36055374px;font-family:'FROSTBITE Narrow';-inkscape-font-specification:'FROSTBITE Narrow';fill:#ffffff;stroke-width:1.5067941">GabMus</tspan></text>
      <path
         inkscape:connector-curvature="0"
         id="path4589-6"
         d="m 565.27394,215.35285 c -4.03317,0 -7.28722,3.14917 -7.28722,7.06157 0,3.91242 3.25405,7.06159 7.28722,7.06159 h 7.19835 v -4.73707 h -4.39009 l -1.01311,1.00377 c 0.0816,0.16264 0.14219,0.33484 0.14219,0.52829 0,0.6828 -0.57279,1.23269 -1.26193,1.23269 -0.68915,0 -1.24416,-0.54989 -1.24416,-1.23269 0,-0.6828 0.55501,-1.23269 1.24416,-1.23269 0.19323,0 0.36833,0.046 0.53321,0.12327 l 1.26194,-1.2327 h 4.72779 v -1.60252 h -8.79798 c -0.17157,0.47969 -0.61236,0.82768 -1.15529,0.82768 -0.68915,0 -1.26193,-0.54989 -1.26193,-1.23268 0,-0.68282 0.57278,-1.23271 1.26193,-1.23271 0.54293,0 0.98372,0.34799 1.15529,0.82767 h 8.79798 v -0.14088 l -0.51542,-0.51069 h -5.59872 l -0.99534,-0.98616 -0.62207,-0.61634 -0.72872,-0.73962 h -0.0177 c -0.0764,0.0301 -0.1623,0.0528 -0.24884,0.0528 -0.36986,0 -0.6754,-0.30273 -0.6754,-0.66919 0,-0.36644 0.30554,-0.65156 0.6754,-0.65156 0.36985,0 0.6754,0.28512 0.6754,0.65156 0,0.0857 -0.0229,0.17085 -0.0532,0.24654 -0.002,0.005 0.002,0.0125 0,0.0176 l 0.7465,0.73961 0.62207,0.61635 0.83537,0.82766 h 4.87 l -0.88869,-0.88049 h -3.12816 l -1.36863,-1.35596 h -0.0177 c -0.0759,0.0296 -0.1623,0.0528 -0.24883,0.0528 -0.36986,0 -0.65763,-0.30272 -0.65763,-0.66919 0,-0.36645 0.28777,-0.66917 0.65763,-0.66917 0.36985,0 0.6754,0.30272 0.6754,0.66917 0,0.0857 -0.0234,0.17132 -0.0533,0.24655 -0.002,0.005 0.002,0.0125 0,0.0176 l 1.22639,1.19748 h 3.12817 l 1.70628,1.69054 v -5.30059 h -7.19837 z m 8.31811,0 v 6.16347 0.81004 7.14965 h 2.93265 c 4.03318,0 7.28723,-3.14917 7.28723,-7.06159 0,-3.9124 -3.25405,-7.06157 -7.28723,-7.06157 z"
         style="display:inline;fill:#ffffff;fill-opacity:1;stroke-width:0.11365455" />
    </g>
    <path
       sodipodi:nodetypes="cccccccccccccc"
       inkscape:connector-curvature="0"
       id="path1505"
       d="m 6.3499865,62.363921 v 66.338559 l 4.9184205,4.91839 v 26.09629 l 2.67143,2.67144 V 64.458211 l 3.329109,-3.32909 H 126.12089 l -2.02706,-3.51096 H 57.327479 L 53.452524,53.743175 H 14.387407 l -8.0374205,7.859756 z"
       style="fill:#1a5fb4;fill-opacity:1;stroke:none;stroke-width:0.67178333px;stroke-linecap:butt;stroke-linejoin:miter;stroke-opacity:1" />
    <path
       style="fill:#1a5fb4;fill-opacity:1;stroke:none;stroke-width:0.67178333px;stroke-linecap:butt;stroke-linejoin:miter;stroke-opacity:1"
       d="M 358.77499,249.38076 V 183.0422 l -4.91842,-4.91839 v -26.09629 l -2.67143,-2.67144 v 97.93039 l -3.32911,3.32909 H 239.00409 l 2.02706,3.51096 h 66.76635 l 3.87496,3.87499 h 39.06511 l 8.03742,-7.85976 z"
       id="path1589"
       inkscape:connector-curvature="0"
       sodipodi:nodetypes="cccccccccccccc" />
    <text
       xml:space="preserve"
       style="font-style:normal;font-weight:normal;font-size:7.97471046px;line-height:1.25;font-family:sans-serif;text-align:end;letter-spacing:0px;word-spacing:0px;text-anchor:end;fill:#5e5c64;fill-opacity:1;stroke:none;stroke-width:0.4984194"
       x="120.78138"
       y="55.330677"
       id="text1618"><tspan
         sodipodi:role="line"
         x="120.78138"
         y="55.330677"
         style="font-style:normal;font-variant:normal;font-weight:normal;font-stretch:normal;font-family:Orbitron;-inkscape-font-specification:Orbitron;text-align:end;text-anchor:end;fill:#5e5c64;stroke-width:0.4984194"
         id="tspan1616">/dev/video0</tspan></text>
    <path
       inkscape:connector-curvature="0"
       id="path1713"
       d="m 372.2035,64.212393 -6.70968,6.70968 h 5.13932 l 6.70969,-6.70968 z m 10.27844,0 -6.70969,6.70968 h 5.13913 l 6.70968,-6.70968 z m 10.27843,0 -6.70968,6.70968 h 5.13912 l 6.70969,-6.70968 z m 10.27844,0 -6.70968,6.70968 h 5.13912 l 6.70968,-6.70968 z"
       style="opacity:0.5;fill:#000000;fill-opacity:1;stroke:none;stroke-width:1.72903919;stroke-linecap:round;stroke-miterlimit:4;stroke-dasharray:none;stroke-opacity:1"
       sodipodi:nodetypes="cccccccccccccccccccc" />
    <path
       style="fill:#1a5fb4;fill-opacity:1;stroke:none;stroke-width:0.67178333px;stroke-linecap:butt;stroke-linejoin:miter;stroke-opacity:1"
       d="m 357.18755,62.363921 v 66.338559 l 4.91842,4.91839 v 26.09629 l 2.67143,2.67144 V 64.458211 l 3.32911,-3.32909 h 108.85195 l -2.02706,-3.51096 h -66.76635 l -3.87496,-3.874986 h -39.06512 l -8.03742,7.859756 z"
       id="path1725"
       inkscape:connector-curvature="0"
       sodipodi:nodetypes="cccccccccccccc" />
    <path
       sodipodi:nodetypes="cccccccccccccc"
       inkscape:connector-curvature="0"
       id="path1727"
       d="M 501.65001,249.38076 V 183.0422 l -4.91842,-4.91839 v -26.09629 l -2.67143,-2.67144 v 97.93039 l -3.32911,3.32909 H 381.87911 l 2.02706,3.51096 h 66.76635 l 3.87496,3.87499 h 39.06511 l 8.03742,-7.85976 z"
       style="fill:#1a5fb4;fill-opacity:1;stroke:none;stroke-width:0.67178333px;stroke-linecap:butt;stroke-linejoin:miter;stroke-opacity:1" />
    <text
       id="text1737"
       y="55.330677"
       x="471.2601"
       style="font-style:normal;font-weight:normal;font-size:7.97471046px;line-height:1.25;font-family:sans-serif;text-align:end;letter-spacing:0px;word-spacing:0px;text-anchor:end;fill:#5e5c64;fill-opacity:1;stroke:none;stroke-width:0.4984194"
       xml:space="preserve"><tspan
         id="tspan1735"
         style="font-style:normal;font-variant:normal;font-weight:normal;font-stretch:normal;font-family:Orbitron;-inkscape-font-specification:Orbitron;text-align:end;text-anchor:end;fill:#5e5c64;stroke-width:0.4984194"
         y="55.330677"
         x="471.2601"
         sodipodi:role="line">chat</tspan></text>
  </g>
</svg>
